Trabajo final League of Legends
…
tabla <- mutate(summarise(group_by(filter(info_partidas,League %in% c("EULCS",
                                                                      "NALCS","LCK", 
                                                                      "LMS", "MSI", 
                                                                      "WC")), League),
                             Media = mean(gamelength),
                          Minimo = min(gamelength),
                          Maximo = max(gamelength),
                          Desv_Est = sd(gamelength)))

## `summarise()` ungrouping output (override with `.groups` argument)

tabla <- gather(tabla, Estadistico, valor, -1)
tabla

## # A tibble: 24 x 3
##    League Estadistico valor
##    <chr>  <chr>       <dbl>
##  1 EULCS  Media        36.9
##  2 LCK    Media        38.8
##  3 LMS    Media        36.7
##  4 MSI    Media        35.7
##  5 NALCS  Media        37.0
##  6 WC     Media        37.3
##  7 EULCS  Minimo       21  
##  8 LCK    Minimo       21  
##  9 LMS    Minimo       20  
## 10 MSI    Minimo       23  
## # ... with 14 more rows
…
